515-driftkammer/data/TEK0006.CSV

Record Length,2.500000e+03,,  -0.000000012500,  -0.56000,
Sample Interval,1.000000e-11,,  -0.000000012490,  -0.56000,
Trigger Point,1.250000000000e+03,,  -0.000000012480,  -0.56000,
,,,  -0.000000012470,  -0.56000,
,,,  -0.000000012460,  -0.56000,
,,,  -0.000000012450,  -0.56000,
Source,CH1,,  -0.000000012440,  -0.56000,
Vertical Units,V,,  -0.000000012430,  -0.56000,
Vertical Scale,1.000000e+00,,  -0.000000012420,  -0.56000,
Vertical Offset,4.080000e+00,,  -0.000000012410,  -0.56000,
Horizontal Units,s,,  -0.000000012400,  -0.56000,
Horizontal Scale,2.500000e-09,,  -0.000000012390,  -0.56000,
Pt Fmt,Y,,  -0.000000012380,  -0.56000,
Yzero,0.000000e+00,,  -0.000000012370,  -0.56000,
Probe Atten,1.000000e+01,,  -0.000000012360,  -0.56000,
Model Number,TDS2024B,,  -0.000000012350,  -0.56000,
Serial Number,C105283,,  -0.000000012340,  -0.56000,
Firmware Version,FV:v24.02,,  -0.000000012330,  -0.56000,
,,,-00.000000012320,  -0.56000,
,,,-00.000000012310,  -0.56000,
,,,-00.000000012300,  -0.56000,
,,,-00.000000012290,  -0.56000,
,,,-00.000000012280,  -0.56000,
,,,-00.000000012270,  -0.56000,
,,,-00.000000012260,  -0.56000,
,,,-00.000000012250,  -0.56000,
,,,-00.000000012240,  -0.56000,
,,,-00.000000012230,  -0.56000,
,,,-00.000000012220,  -0.56000,
,,,-00.000000012210,  -0.56000,
,,,-00.000000012200,  -0.56000,
,,,-00.000000012190,  -0.56000,
,,,-00.000000012180,  -0.56000,
,,,-00.000000012170,  -0.56000,
,,,-00.000000012160,  -0.56000,
,,,-00.000000012150,  -0.56000,
,,,-00.000000012140,  -0.56000,
,,,-00.000000012130,  -0.56000,
,,,-00.000000012120,  -0.52000,
,,,-00.000000012110,  -0.52000,
,,,-00.000000012100,  -0.52000,
,,,-00.000000012090,  -0.52000,
,,,-00.000000012080,  -0.52000,
,,,-00.000000012070,  -0.52000,
,,,-00.000000012060,  -0.52000,
,,,-00.000000012050,  -0.52000,
,,,-00.000000012040,  -0.52000,
,,,-00.000000012030,  -0.52000,
,,,-00.000000012020,  -0.52000,
,,,-00.000000012010,  -0.52000,
,,,-00.000000012000,  -0.52000,
,,,-00.000000011990,  -0.52000,
,,,-00.000000011980,  -0.52000,
,,,-00.000000011970,  -0.52000,
,,,-00.000000011960,  -0.52000,
,,,-00.000000011950,  -0.52000,
,,,-00.000000011940,  -0.56000,
,,,-00.000000011930,  -0.56000,
,,,-00.000000011920,  -0.56000,
,,,-00.000000011910,  -0.56000,
,,,-00.000000011900,  -0.56000,
,,,-00.000000011890,  -0.56000,
,,,-00.000000011880,  -0.56000,
,,,-00.000000011870,  -0.56000,
,,,-00.000000011860,  -0.56000,
,,,-00.000000011850,  -0.56000,
,,,-00.000000011840,  -0.56000,
,,,-00.000000011830,  -0.56000,
,,,-00.000000011820,  -0.56000,
,,,-00.000000011810,  -0.56000,
,,,-00.000000011800,  -0.56000,
,,,-00.000000011790,  -0.56000,
,,,-00.000000011780,  -0.56000,
,,,-00.000000011770,  -0.56000,
,,,-00.000000011760,  -0.56000,
,,,-00.000000011750,  -0.56000,
,,,-00.000000011740,  -0.56000,
,,,-00.000000011730,  -0.56000,
,,,-00.000000011720,  -0.56000,
,,,-00.000000011710,  -0.56000,
,,,-00.000000011700,  -0.56000,
,,,-00.000000011690,  -0.56000,
,,,-00.000000011680,  -0.56000,
,,,-00.000000011670,  -0.56000,
,,,-00.000000011660,  -0.56000,
,,,-00.000000011650,  -0.56000,
,,,-00.000000011640,  -0.56000,
,,,-00.000000011630,  -0.56000,
,,,-00.000000011620,  -0.56000,
,,,-00.000000011610,  -0.56000,
,,,-00.000000011600,  -0.56000,
,,,-00.000000011590,  -0.56000,
,,,-00.000000011580,  -0.56000,
,,,-00.000000011570,  -0.56000,
,,,-00.000000011560,  -0.56000,
,,,-00.000000011550,  -0.56000,
,,,-00.000000011540,  -0.56000,
,,,-00.000000011530,  -0.56000,
,,,-00.000000011520,  -0.56000,
,,,-00.000000011510,  -0.56000,
,,,-00.000000011500,  -0.56000,
,,,-00.000000011490,  -0.56000,
,,,-00.000000011480,  -0.56000,
,,,-00.000000011470,  -0.56000,
,,,-00.000000011460,  -0.56000,
,,,-00.000000011450,  -0.56000,
,,,-00.000000011440,  -0.56000,
,,,-00.000000011430,  -0.56000,
,,,-00.000000011420,  -0.56000,
,,,-00.000000011410,  -0.56000,
,,,-00.000000011400,  -0.56000,
,,,-00.000000011390,  -0.56000,
,,,-00.000000011380,  -0.56000,
,,,-00.000000011370,  -0.56000,
,,,-00.000000011360,  -0.60000,
,,,-00.000000011350,  -0.60000,
,,,-00.000000011340,  -0.60000,
,,,-00.000000011330,  -0.60000,
,,,-00.000000011320,  -0.60000,
,,,-00.000000011310,  -0.60000,
,,,-00.000000011300,  -0.60000,
,,,-00.000000011290,  -0.60000,
,,,-00.000000011280,  -0.60000,
,,,-00.000000011270,  -0.60000,
,,,-00.000000011260,  -0.60000,
,,,-00.000000011250,  -0.60000,
,,,-00.000000011240,  -0.60000,
,,,-00.000000011230,  -0.60000,
,,,-00.000000011220,  -0.60000,
,,,-00.000000011210,  -0.56000,
,,,-00.000000011200,  -0.56000,
,,,-00.000000011190,  -0.56000,
,,,-00.000000011180,  -0.56000,
,,,-00.000000011170,  -0.56000,
,,,-00.000000011160,  -0.56000,
,,,-00.000000011150,  -0.56000,
,,,-00.000000011140,  -0.56000,
,,,-00.000000011130,  -0.56000,
,,,-00.000000011120,  -0.56000,
,,,-00.000000011110,  -0.56000,
,,,-00.000000011100,  -0.56000,
,,,-00.000000011090,  -0.56000,
,,,-00.000000011080,  -0.56000,
,,,-00.000000011070,  -0.56000,
,,,-00.000000011060,  -0.56000,
,,,-00.000000011050,  -0.56000,
,,,-00.000000011040,  -0.56000,
,,,-00.000000011030,  -0.56000,
,,,-00.000000011020,  -0.56000,
,,,-00.000000011010,  -0.56000,
,,,-00.000000011000,  -0.56000,
,,,-00.000000010990,  -0.56000,
,,,-00.000000010980,  -0.56000,
,,,-00.000000010970,  -0.56000,
,,,-00.000000010960,  -0.56000,
,,,-00.000000010950,  -0.56000,
,,,-00.000000010940,  -0.56000,
,,,-00.000000010930,  -0.56000,
,,,-00.000000010920,  -0.56000,
,,,-00.000000010910,  -0.56000,
,,,-00.000000010900,  -0.56000,
,,,-00.000000010890,  -0.56000,
,,,-00.000000010880,  -0.56000,
,,,-00.000000010870,  -0.56000,
,,,-00.000000010860,  -0.56000,
,,,-00.000000010850,  -0.56000,
,,,-00.000000010840,  -0.56000,
,,,-00.000000010830,  -0.56000,
,,,-00.000000010820,  -0.56000,
,,,-00.000000010810,  -0.56000,
,,,-00.000000010800,  -0.56000,
,,,-00.000000010790,  -0.56000,
,,,-00.000000010780,  -0.56000,
,,,-00.000000010770,  -0.56000,
,,,-00.000000010760,  -0.56000,
,,,-00.000000010750,  -0.56000,
,,,-00.000000010740,  -0.56000,
,,,-00.000000010730,  -0.56000,
,,,-00.000000010720,  -0.56000,
,,,-00.000000010710,  -0.56000,
,,,-00.000000010700,  -0.56000,
,,,-00.000000010690,  -0.56000,
,,,-00.000000010680,  -0.56000,
,,,-00.000000010670,  -0.56000,
,,,-00.000000010660,  -0.56000,
,,,-00.000000010650,  -0.56000,
,,,-00.000000010640,  -0.56000,
,,,-00.000000010630,  -0.52000,
,,,-00.000000010620,  -0.52000,
,,,-00.000000010610,  -0.52000,
,,,-00.000000010600,  -0.52000,
,,,-00.000000010590,  -0.52000,
,,,-00.000000010580,  -0.52000,
,,,-00.000000010570,  -0.52000,
,,,-00.000000010560,  -0.52000,
,,,-00.000000010550,  -0.52000,
,,,-00.000000010540,  -0.52000,
,,,-00.000000010530,  -0.52000,
,,,-00.000000010520,  -0.52000,
,,,-00.000000010510,  -0.52000,
,,,-00.000000010500,  -0.52000,
,,,-00.000000010490,  -0.52000,
,,,-00.000000010480,  -0.52000,
,,,-00.000000010470,  -0.52000,
,,,-00.000000010460,  -0.52000,
,,,-00.000000010450,  -0.52000,
,,,-00.000000010440,  -0.56000,
,,,-00.000000010430,  -0.56000,
,,,-00.000000010420,  -0.56000,
,,,-00.000000010410,  -0.56000,
,,,-00.000000010400,  -0.56000,
,,,-00.000000010390,  -0.56000,
,,,-00.000000010380,  -0.56000,
,,,-00.000000010370,  -0.56000,
,,,-00.000000010360,  -0.56000,
,,,-00.000000010350,  -0.56000,
,,,-00.000000010340,  -0.56000,
,,,-00.000000010330,  -0.56000,
,,,-00.000000010320,  -0.56000,
,,,-00.000000010310,  -0.56000,
,,,-00.000000010300,  -0.56000,
,,,-00.000000010290,  -0.56000,
,,,-00.000000010280,  -0.56000,
,,,-00.000000010270,  -0.56000,
,,,-00.000000010260,  -0.56000,
,,,-00.000000010250,  -0.56000,
,,,-00.000000010240,  -0.56000,
,,,-00.000000010230,  -0.56000,
,,,-00.000000010220,  -0.56000,
,,,-00.000000010210,  -0.56000,
,,,-00.000000010200,  -0.56000,
,,,-00.000000010190,  -0.56000,
,,,-00.000000010180,  -0.56000,
,,,-00.000000010170,  -0.56000,
,,,-00.000000010160,  -0.56000,
,,,-00.000000010150,  -0.56000,
,,,-00.000000010140,  -0.56000,
,,,-00.000000010130,  -0.56000,
,,,-00.000000010120,  -0.56000,
,,,-00.000000010110,  -0.56000,
,,,-00.000000010100,  -0.56000,
,,,-00.000000010090,  -0.56000,
,,,-00.000000010080,  -0.56000,
,,,-00.000000010070,  -0.56000,
,,,-00.000000010060,  -0.56000,
,,,-00.000000010050,  -0.56000,
,,,-00.000000010040,  -0.56000,
,,,-00.000000010030,  -0.56000,
,,,-00.000000010020,  -0.56000,
,,,-00.000000010010,  -0.56000,
,,,-00.000000010000,  -0.56000,
,,,-00.000000009990,  -0.56000,
,,,-00.000000009980,  -0.56000,
,,,-00.000000009970,  -0.56000,
,,,-00.000000009960,  -0.56000,
,,,-00.000000009950,  -0.56000,
,,,-00.000000009940,  -0.56000,
,,,-00.000000009930,  -0.56000,
,,,-00.000000009920,  -0.56000,
,,,-00.000000009910,  -0.56000,
,,,-00.000000009900,  -0.56000,
,,,-00.000000009890,  -0.56000,
,,,-00.000000009880,  -0.56000,
,,,-00.000000009870,  -0.56000,
,,,-00.000000009860,  -0.56000,
,,,-00.000000009850,  -0.56000,
,,,-00.000000009840,  -0.56000,
,,,-00.000000009830,  -0.56000,
,,,-00.000000009820,  -0.56000,
,,,-00.000000009810,  -0.56000,
,,,-00.000000009800,  -0.56000,
,,,-00.000000009790,  -0.56000,
,,,-00.000000009780,  -0.56000,
,,,-00.000000009770,  -0.56000,
,,,-00.000000009760,  -0.56000,
,,,-00.000000009750,  -0.56000,
,,,-00.000000009740,  -0.56000,
,,,-00.000000009730,  -0.56000,
,,,-00.000000009720,  -0.56000,
,,,-00.000000009710,  -0.56000,
,,,-00.000000009700,  -0.56000,
,,,-00.000000009690,  -0.56000,
,,,-00.000000009680,  -0.56000,
,,,-00.000000009670,  -0.56000,
,,,-00.000000009660,  -0.56000,
,,,-00.000000009650,  -0.56000,
,,,-00.000000009640,  -0.56000,
,,,-00.000000009630,  -0.56000,
,,,-00.000000009620,  -0.56000,
,,,-00.000000009610,  -0.56000,
,,,-00.000000009600,  -0.56000,
,,,-00.000000009590,  -0.56000,
,,,-00.000000009580,  -0.56000,
,,,-00.000000009570,  -0.56000,
,,,-00.000000009560,  -0.56000,
,,,-00.000000009550,  -0.56000,
,,,-00.000000009540,  -0.56000,
,,,-00.000000009530,  -0.56000,
,,,-00.000000009520,  -0.56000,
,,,-00.000000009510,  -0.56000,
,,,-00.000000009500,  -0.56000,
,,,-00.000000009490,  -0.56000,
,,,-00.000000009480,  -0.56000,
,,,-00.000000009470,  -0.56000,
,,,-00.000000009460,  -0.56000,
,,,-00.000000009450,  -0.56000,
,,,-00.000000009440,  -0.56000,
,,,-00.000000009430,  -0.56000,
,,,-00.000000009420,  -0.56000,
,,,-00.000000009410,  -0.56000,
,,,-00.000000009400,  -0.56000,
,,,-00.000000009390,  -0.56000,
,,,-00.000000009380,  -0.56000,
,,,-00.000000009370,  -0.56000,
,,,-00.000000009360,  -0.56000,
,,,-00.000000009350,  -0.56000,
,,,-00.000000009340,  -0.56000,
,,,-00.000000009330,  -0.56000,
,,,-00.000000009320,  -0.56000,
,,,-00.000000009310,  -0.56000,
,,,-00.000000009300,  -0.56000,
,,,-00.000000009290,  -0.56000,
,,,-00.000000009280,  -0.56000,
,,,-00.000000009270,  -0.56000,
,,,-00.000000009260,  -0.56000,
,,,-00.000000009250,  -0.56000,
,,,-00.000000009240,  -0.56000,
,,,-00.000000009230,  -0.56000,
,,,-00.000000009220,  -0.56000,
,,,-00.000000009210,  -0.56000,
,,,-00.000000009200,  -0.56000,
,,,-00.000000009190,  -0.56000,
,,,-00.000000009180,  -0.56000,
,,,-00.000000009170,  -0.56000,
,,,-00.000000009160,  -0.56000,
,,,-00.000000009150,  -0.56000,
,,,-00.000000009140,  -0.56000,
,,,-00.000000009130,  -0.56000,
,,,-00.000000009120,  -0.56000,
,,,-00.000000009110,  -0.56000,
,,,-00.000000009100,  -0.56000,
,,,-00.000000009090,  -0.56000,
,,,-00.000000009080,  -0.56000,
,,,-00.000000009070,  -0.56000,
,,,-00.000000009060,  -0.56000,
,,,-00.000000009050,  -0.56000,
,,,-00.000000009040,  -0.56000,
,,,-00.000000009030,  -0.56000,
,,,-00.000000009020,  -0.56000,
,,,-00.000000009010,  -0.56000,
,,,-00.000000009000,  -0.56000,
,,,-00.000000008990,  -0.56000,
,,,-00.000000008980,  -0.56000,
,,,-00.000000008970,  -0.56000,
,,,-00.000000008960,  -0.56000,
,,,-00.000000008950,  -0.60000,
,,,-00.000000008940,  -0.60000,
,,,-00.000000008930,  -0.60000,
,,,-00.000000008920,  -0.60000,
,,,-00.000000008910,  -0.60000,
,,,-00.000000008900,  -0.60000,
,,,-00.000000008890,  -0.60000,
,,,-00.000000008880,  -0.60000,
,,,-00.000000008870,  -0.60000,
,,,-00.000000008860,  -0.60000,
,,,-00.000000008850,  -0.60000,
,,,-00.000000008840,  -0.60000,
,,,-00.000000008830,  -0.60000,
,,,-00.000000008820,  -0.60000,
,,,-00.000000008810,  -0.60000,
,,,-00.000000008800,  -0.60000,
,,,-00.000000008790,  -0.60000,
,,,-00.000000008780,  -0.60000,
,,,-00.000000008770,  -0.60000,
,,,-00.000000008760,  -0.60000,
,,,-00.000000008750,  -0.60000,
,,,-00.000000008740,  -0.60000,
,,,-00.000000008730,  -0.60000,
,,,-00.000000008720,  -0.60000,
,,,-00.000000008710,  -0.60000,
,,,-00.000000008700,  -0.60000,
,,,-00.000000008690,  -0.60000,
,,,-00.000000008680,  -0.60000,
,,,-00.000000008670,  -0.60000,
,,,-00.000000008660,  -0.60000,
,,,-00.000000008650,  -0.60000,
,,,-00.000000008640,  -0.60000,
,,,-00.000000008630,  -0.60000,
,,,-00.000000008620,  -0.60000,
,,,-00.000000008610,  -0.60000,
,,,-00.000000008600,  -0.60000,
,,,-00.000000008590,  -0.60000,
,,,-00.000000008580,  -0.60000,
,,,-00.000000008570,  -0.60000,
,,,-00.000000008560,  -0.60000,
,,,-00.000000008550,  -0.60000,
,,,-00.000000008540,  -0.60000,
,,,-00.000000008530,  -0.60000,
,,,-00.000000008520,  -0.60000,
,,,-00.000000008510,  -0.60000,
,,,-00.000000008500,  -0.60000,
,,,-00.000000008490,  -0.60000,
,,,-00.000000008480,  -0.60000,
,,,-00.000000008470,  -0.60000,
,,,-00.000000008460,  -0.60000,
,,,-00.000000008450,  -0.60000,
,,,-00.000000008440,  -0.60000,
,,,-00.000000008430,  -0.64000,
,,,-00.000000008420,  -0.64000,
,,,-00.000000008410,  -0.64000,
,,,-00.000000008400,  -0.64000,
,,,-00.000000008390,  -0.64000,
,,,-00.000000008380,  -0.64000,
,,,-00.000000008370,  -0.64000,
,,,-00.000000008360,  -0.64000,
,,,-00.000000008350,  -0.64000,
,,,-00.000000008340,  -0.64000,
,,,-00.000000008330,  -0.64000,
,,,-00.000000008320,  -0.64000,
,,,-00.000000008310,  -0.64000,
,,,-00.000000008300,  -0.64000,
,,,-00.000000008290,  -0.64000,
,,,-00.000000008280,  -0.64000,
,,,-00.000000008270,  -0.64000,
,,,-00.000000008260,  -0.64000,
,,,-00.000000008250,  -0.64000,
,,,-00.000000008240,  -0.64000,
,,,-00.000000008230,  -0.64000,
,,,-00.000000008220,  -0.64000,
,,,-00.000000008210,  -0.64000,
,,,-00.000000008200,  -0.64000,
,,,-00.000000008190,  -0.64000,
,,,-00.000000008180,  -0.64000,
,,,-00.000000008170,  -0.64000,
,,,-00.000000008160,  -0.64000,
,,,-00.000000008150,  -0.64000,
,,,-00.000000008140,  -0.64000,
,,,-00.000000008130,  -0.64000,
,,,-00.000000008120,  -0.64000,
,,,-00.000000008110,  -0.64000,
,,,-00.000000008100,  -0.64000,
,,,-00.000000008090,  -0.64000,
,,,-00.000000008080,  -0.64000,
,,,-00.000000008070,  -0.64000,
,,,-00.000000008060,  -0.64000,
,,,-00.000000008050,  -0.64000,
,,,-00.000000008040,  -0.64000,
,,,-00.000000008030,  -0.64000,
,,,-00.000000008020,  -0.64000,
,,,-00.000000008010,  -0.64000,
,,,-00.000000008000,  -0.68000,
,,,-00.000000007990,  -0.68000,
,,,-00.000000007980,  -0.68000,
,,,-00.000000007970,  -0.68000,
,,,-00.000000007960,  -0.68000,
,,,-00.000000007950,  -0.68000,
,,,-00.000000007940,  -0.68000,
,,,-00.000000007930,  -0.68000,
,,,-00.000000007920,  -0.68000,
,,,-00.000000007910,  -0.68000,
,,,-00.000000007900,  -0.68000,
,,,-00.000000007890,  -0.68000,
,,,-00.000000007880,  -0.68000,
,,,-00.000000007870,  -0.68000,
,,,-00.000000007860,  -0.68000,
,,,-00.000000007850,  -0.68000,
,,,-00.000000007840,  -0.68000,
,,,-00.000000007830,  -0.68000,
,,,-00.000000007820,  -0.68000,
,,,-00.000000007810,  -0.68000,
,,,-00.000000007800,  -0.72000,
,,,-00.000000007790,  -0.72000,
,,,-00.000000007780,  -0.72000,
,,,-00.000000007770,  -0.72000,
,,,-00.000000007760,  -0.72000,
,,,-00.000000007750,  -0.72000,
,,,-00.000000007740,  -0.72000,
,,,-00.000000007730,  -0.72000,
,,,-00.000000007720,  -0.72000,
,,,-00.000000007710,  -0.72000,
,,,-00.000000007700,  -0.72000,
,,,-00.000000007690,  -0.72000,
,,,-00.000000007680,  -0.72000,
,,,-00.000000007670,  -0.72000,
,,,-00.000000007660,  -0.72000,
,,,-00.000000007650,  -0.76000,
,,,-00.000000007640,  -0.76000,
,,,-00.000000007630,  -0.76000,
,,,-00.000000007620,  -0.76000,
,,,-00.000000007610,  -0.76000,
,,,-00.000000007600,  -0.76000,
,,,-00.000000007590,  -0.76000,
,,,-00.000000007580,  -0.76000,
,,,-00.000000007570,  -0.76000,
,,,-00.000000007560,  -0.76000,
,,,-00.000000007550,  -0.76000,
,,,-00.000000007540,  -0.76000,
,,,-00.000000007530,  -0.76000,
,,,-00.000000007520,  -0.80000,
,,,-00.000000007510,  -0.80000,
,,,-00.000000007500,  -0.80000,
,,,-00.000000007490,  -0.80000,
,,,-00.000000007480,  -0.80000,
,,,-00.000000007470,  -0.80000,
,,,-00.000000007460,  -0.80000,
,,,-00.000000007450,  -0.80000,
,,,-00.000000007440,  -0.80000,
,,,-00.000000007430,  -0.80000,
,,,-00.000000007420,  -0.80000,
,,,-00.000000007410,  -0.80000,
,,,-00.000000007400,  -0.80000,
,,,-00.000000007390,  -0.84000,
,,,-00.000000007380,  -0.84000,
,,,-00.000000007370,  -0.84000,
,,,-00.000000007360,  -0.84000,
,,,-00.000000007350,  -0.84000,
,,,-00.000000007340,  -0.84000,
,,,-00.000000007330,  -0.84000,
,,,-00.000000007320,  -0.84000,
,,,-00.000000007310,  -0.84000,
,,,-00.000000007300,  -0.84000,
,,,-00.000000007290,  -0.88000,
,,,-00.000000007280,  -0.88000,
,,,-00.000000007270,  -0.88000,
,,,-00.000000007260,  -0.88000,
,,,-00.000000007250,  -0.88000,
,,,-00.000000007240,  -0.88000,
,,,-00.000000007230,  -0.88000,
,,,-00.000000007220,  -0.88000,
,,,-00.000000007210,  -0.88000,
,,,-00.000000007200,  -0.88000,
,,,-00.000000007190,  -0.92000,
,,,-00.000000007180,  -0.92000,
,,,-00.000000007170,  -0.92000,
,,,-00.000000007160,  -0.92000,
,,,-00.000000007150,  -0.92000,
,,,-00.000000007140,  -0.92000,
,,,-00.000000007130,  -0.92000,
,,,-00.000000007120,  -0.92000,
,,,-00.000000007110,  -0.92000,
,,,-00.000000007100,  -0.96000,
,,,-00.000000007090,  -0.96000,
,,,-00.000000007080,  -0.96000,
,,,-00.000000007070,  -0.96000,
,,,-00.000000007060,  -0.96000,
,,,-00.000000007050,  -0.96000,
,,,-00.000000007040,  -0.96000,
,,,-00.000000007030,  -0.96000,
,,,-00.000000007020,  -1.00000,
,,,-00.000000007010,  -1.00000,
,,,-00.000000007000,  -1.00000,
,,,-00.000000006990,  -1.00000,
,,,-00.000000006980,  -1.00000,
,,,-00.000000006970,  -1.00000,
,,,-00.000000006960,  -1.00000,
,,,-00.000000006950,  -1.00000,
,,,-00.000000006940,  -1.04000,
,,,-00.000000006930,  -1.04000,
,,,-00.000000006920,  -1.04000,
,,,-00.000000006910,  -1.04000,
,,,-00.000000006900,  -1.04000,
,,,-00.000000006890,  -1.04000,
,,,-00.000000006880,  -1.04000,
,,,-00.000000006870,  -1.04000,
,,,-00.000000006860,  -1.08000,
,,,-00.000000006850,  -1.08000,
,,,-00.000000006840,  -1.08000,
,,,-00.000000006830,  -1.08000,
,,,-00.000000006820,  -1.08000,
,,,-00.000000006810,  -1.08000,
,,,-00.000000006800,  -1.12000,
,,,-00.000000006790,  -1.12000,
,,,-00.000000006780,  -1.12000,
,,,-00.000000006770,  -1.12000,
,,,-00.000000006760,  -1.12000,
,,,-00.000000006750,  -1.12000,
,,,-00.000000006740,  -1.12000,
,,,-00.000000006730,  -1.16000,
,,,-00.000000006720,  -1.16000,
,,,-00.000000006710,  -1.16000,
,,,-00.000000006700,  -1.16000,
,,,-00.000000006690,  -1.16000,
,,,-00.000000006680,  -1.20000,
,,,-00.000000006670,  -1.20000,
,,,-00.000000006660,  -1.20000,
,,,-00.000000006650,  -1.20000,
,,,-00.000000006640,  -1.20000,
,,,-00.000000006630,  -1.24000,
,,,-00.000000006620,  -1.24000,
,,,-00.000000006610,  -1.24000,
,,,-00.000000006600,  -1.24000,
,,,-00.000000006590,  -1.24000,
,,,-00.000000006580,  -1.24000,
,,,-00.000000006570,  -1.28000,
,,,-00.000000006560,  -1.28000,
,,,-00.000000006550,  -1.28000,
,,,-00.000000006540,  -1.28000,
,,,-00.000000006530,  -1.32000,
,,,-00.000000006520,  -1.32000,
,,,-00.000000006510,  -1.32000,
,,,-00.000000006500,  -1.32000,
,,,-00.000000006490,  -1.36000,
,,,-00.000000006480,  -1.36000,
,,,-00.000000006470,  -1.36000,
,,,-00.000000006460,  -1.36000,
,,,-00.000000006450,  -1.40000,
,,,-00.000000006440,  -1.40000,
,,,-00.000000006430,  -1.40000,
,,,-00.000000006420,  -1.40000,
,,,-00.000000006410,  -1.44000,
,,,-00.000000006400,  -1.44000,
,,,-00.000000006390,  -1.44000,
,,,-00.000000006380,  -1.44000,
,,,-00.000000006370,  -1.48000,
